business_details^serial_no^2^4^1^
business_details^exp_id^2^4^2^
business_details^date^7^4^3^
business_details^amount^5^2306^4^
business_details^company_name^201^255^5^
business_details^business_trans^201^255^6^
emp_mast^emp_no^2^4^1^
emp_mast^emp_name^201^255^2^
emp_mast^position^201^255^3^
emp_mast^manager^201^255^4^
emp_mast^department^201^255^5^
exp_details^serial_no^2^4^1^
exp_details^exp_id^2^4^2^
exp_details^date^7^4^3^
exp_details^location^201^255^4^
exp_details^expense_type^201^255^5^
exp_details^mileage^5^2306^6^
exp_details^amount^201^9^7^
exp_details^charge_to_fourjs^5^2306^8^
exp_header^exp_id^2^4^1^
exp_header^emp_no^2^4^2^
exp_header^notes^201^255^3^
exp_header^charge_type^201^255^4^
